<?xml version="1.0" encoding="UTF-8" standalone="no"?>
<svg
   xmlns:dc="http://purl.org/dc/elements/1.1/"
   xmlns:cc="http://creativecommons.org/ns#"
   xmlns:rdf="http://www.w3.org/1999/02/22-rdf-syntax-ns#"
   xmlns:svg="http://www.w3.org/2000/svg"
   xmlns="http://www.w3.org/2000/svg"
   xmlns:sodipodi="http://sodipodi.sourceforge.net/DTD/sodipodi-0.dtd"
   xmlns:inkscape="http://www.inkscape.org/namespaces/inkscape"
   width="400"
   height="400"
   version="1.1"
   id="svg12"
   sodipodi:docname="bovinos.svg"
   inkscape:version="0.92.3 (2405546, 2018-03-11)">
  <defs
     id="defs16" />
  <sodipodi:namedview
     pagecolor="#ffffff"
     bordercolor="#666666"
     borderopacity="1"
     objecttolerance="10"
     gridtolerance="10"
     guidetolerance="10"
     inkscape:pageopacity="0"
     inkscape:pageshadow="2"
     inkscape:window-width="1222"
     inkscape:window-height="997"
     id="namedview14"
     showgrid="false"
     inkscape:zoom="1.9325"
     inkscape:cx="200"
     inkscape:cy="200"
     inkscape:window-x="58"
     inkscape:window-y="0"
     inkscape:window-maximized="1"
     inkscape:current-layer="svg12" />
  <title
     id="title2">Beef Cuts thesaurus</title>
  <metadata
     id="metadata8">image/svg+xml<rdf:RDF>
  <cc:Work
     rdf:about="">
    <dc:format>image/svg+xml</dc:format>
    <dc:type
       rdf:resource="http://purl.org/dc/dcmitype/StillImage" />
    <dc:title>Beef Cuts thesaurus</dc:title>
  </cc:Work>
</rdf:RDF>
</metadata>
  <path
     style="fill:#d12f0d;stroke:none;stroke-width:1.25195599px;stroke-linecap:round;stroke-linejoin:round;fill-opacity:1"
     inkscape:connector-curvature="0"
     id="path2987"
     d="m 333.84467,110.94322 c -4.60177,2.46268 -4.58842,4.95296 -5.25397,7.43916 -2.91215,3.01732 -6.96633,2.72635 -11.38149,1.38964 -6.39035,-4.91295 -10.29101,-3.42697 -13.68094,-0.62838 -9.10859,-2.22106 -18.22648,-3.05049 -27.32049,-7.45166 l -8.46843,-1.87271 C 247.70763,97.708153 240.07517,97.983753 231.39416,97.211833 c -13.21911,-1.89458 -31.74403,-2.2565 -53.18679,-1.77557 -37.18717,0.40671 -65.97133,-1.27146 -89.793003,-4.18087 -20.818616,-2.02875 -22.349287,1.27692 -25.855333,4.03626 -31.662086,3.67361 -31.501103,6.980367 -36.691481,10.348817 -5.96449,6.63451 -9.264998,14.2316 -11.136138,22.34515 -3.563399,11.01623 -6.0595462,14.84094 -2.05152,47.36206 l 0.916181,7.11162 0.98686,-3.45607 -0.03898,5.83045 1.548016,-0.90178 -0.596498,2.72957 1.545586,-0.53739 0.339174,6.92597 1.157664,-0.17529 -1.389403,6.00458 -1.194232,5.64135 -1.59798,8.37205 c -1.586573,4.7371 -2.101372,8.72429 -1.622359,12.01612 2.861808,3.14364 5.114779,3.92161 5.979842,-0.6931 1.167016,7.60348 2.87218,4.60896 4.62091,0.75645 3.4783,3.02109 3.759228,-5.85161 4.331705,-13.63979 0.420041,-2.58469 -0.123346,-6.55438 -0.700286,-10.57231 -0.815316,-6.03377 -0.878285,-12.10307 -1.226102,-18.41042 -0.370152,-3.4525 -0.440082,-6.56959 -3.765853,-13.32376 -1.672981,-1.55255 -3.035114,-5.34088 -4.168411,-10.77524 0.05463,-8.09671 0.496159,-15.32509 2.06147,-20.03067 8.359464,17.47362 15.265562,35.46571 16.977446,55.31078 l 1.089417,10.02801 c -0.745661,7.70858 -2.650336,12.627 -4.360954,18.01263 -4.054438,5.4222 -7.122139,2.96881 -0.709833,19.67431 3.309357,14.23209 2.767143,28.44116 2.605952,42.65249 l -2.123804,0.53393 1.733453,0.19256 -3.66818,0.88912 3.465691,0.56734 -0.586754,1.27196 -2.317763,0.71497 2.886234,0.7461 2.114062,0.92367 -0.591636,2.00078 -1.940813,1.9927 2.12137,-0.16954 0.186652,0.91216 -1.550465,1.2662 1.927408,0.0115 1.147919,1.28232 -0.0061,0.91102 -0.392794,1.09091 2.501976,0.56157 c -3.191187,2.08818 -1.88465,5.36487 0.518513,8.93134 6.688979,0.56616 13.033088,1.7742 21.205174,-0.41989 1.318728,-0.26619 2.819997,0.35963 3.676697,-2.16455 -3.315019,-3.69257 -4.163374,-3.83908 -5.557791,-4.77064 2.027396,-2.26849 -2.12584,-6.1702 -5.523689,-9.8723 -7.491247,-21.3962 -5.66761,-40.55774 -0.40902,-54.11849 2.729515,-6.2414 22.284454,-33.61729 21.21838,-31.21312 l 2.305589,1.10703 c 0.853626,5.41662 1.813701,9.53972 3.221753,8.21866 1.76083,0.99458 1.634737,-4.71807 1.98591,-8.73416 l 1.349186,0.008 c 1.023202,3.71864 1.427481,10.81581 3.407193,9.31303 2.410849,1.13457 1.981569,-3.87615 2.550719,-6.72648 l 1.54681,-0.71959 2.1299,-1.44494 1.55412,-1.81282 8.112173,-2.50241 4.43062,0.39089 c 8.054,3.78328 15.70756,6.7973 23.25831,9.61386 l 6.14578,3.31652 3.45471,2.20715 2.89234,-0.16493 2.50929,-0.53162 3.85604,-0.15917 1.5468,-0.71958 1.74199,-1.08285 4.63188,-0.88336 10.99476,-1.20974 8.68067,-1.04138 7.13995,-1.23277 11.37537,-0.47866 5.78101,0.21677 5.96036,2.22213 -0.0159,2.36863 0.72221,7.29267 c 0.39054,7.32448 0.5961,15.24672 1.99098,19.32606 -1.0546,6.06169 1.05829,10.86244 3.5585,15.50903 1.67068,12.92848 0.79027,22.07677 0.56127,31.35614 l 0.1708,3.2808 1.53706,0.73803 0.19395,-0.18106 0.95641,1.09896 1.34795,0.19027 -0.38427,-0.1845 0.9625,0.18797 -2.14087,3.08473 0.75389,2.55544 1.13938,2.55775 5.00033,1.66975 1.92742,0.0115 0.75756,2.00881 3.46689,0.38515 c 1.27507,0.97117 4.1689,1.73363 9.04419,2.24057 5.20083,1.06713 8.58649,0.39653 12.33544,0.0738 l 0.58797,-1.45414 0.39523,-1.45533 -6.5142,-5.86961 c -0.34814,-2.49225 -3.05336,-4.99863 -5.92501,-7.50599 -0.61527,-13.67641 -1.33792,-11.29686 -2.01403,-15.87708 l -0.86743,-14.39969 4.1219,-11.0901 c 1.62568,-12.51385 3.21359,-19.37763 4.78419,-23.65858 17.65196,-3.4132 16.46193,-7.78748 24.36459,-11.69797 22.78507,-11.00188 20.46482,-15.63847 23.8534,-21.7225 16.79392,-14.13574 21.26859,-13.90173 28.25232,-16.59434 10.8131,0.18961 14.05262,-0.9693 19.67179,-1.70451 -1.25168,1.16834 14.6346,3.42088 25.22349,3.97713 1.1727,3.57372 9.09715,4.11422 13.09909,1.17156 l 0.01,-1.45763 2.12381,-0.53393 1.74199,-1.08284 0.9771,-1.99846 0.1964,-0.54545 c 2.58643,-1.81707 2.66836,-2.8469 3.11069,-3.99 l -0.36845,-2.55314 0.5965,-2.72955 c -0.0601,-0.82092 -1.70332,-2.402 -2.67399,-3.66017 -2.48495,-2.21767 -4.95042,-4.38839 -8.42091,-8.97857 l -3.6316,-4.57693 c -1.04526,-0.93956 -2.24813,-2.03002 -3.06557,-2.75146 -0.24279,-0.93574 -0.28638,-0.8978 -0.75148,-2.91983 l -0.74413,-4.01304 -0.16959,-3.46299 -0.95031,-2.00997 -1.72371,-1.6502 -2.6801,-2.74914 -1.91887,-1.28694 -2.67765,-3.11355 -1.14183,-2.19334 -1.90425,-3.47336 -0.75879,-1.82662 c 5.66505,-4.8037 8.77252,-9.75001 4.72692,-15.09508 -1.35238,3.69684 -1.59141,7.40031 -6.82027,11.07399 -3.49367,-2.25463 -7.58418,-3.39839 -12.11831,-3.71664 2.09627,-4.50538 0.44831,-7.85577 -2.04702,-10.944757 -0.0408,8.238517 -3.048,10.299057 -6.05786,12.354007 l -5e-5,-5e-5 z" />
</svg>
