<?xml version="1.0" encoding="UTF-8" standalone="no"?>
<!-- Created with Inkscape (http://www.inkscape.org/) -->

<svg
   xmlns:dc="http://purl.org/dc/elements/1.1/"
   xmlns:cc="http://creativecommons.org/ns#"
   xmlns:rdf="http://www.w3.org/1999/02/22-rdf-syntax-ns#"
   xmlns:svg="http://www.w3.org/2000/svg"
   xmlns="http://www.w3.org/2000/svg"
   xmlns:sodipodi="http://sodipodi.sourceforge.net/DTD/sodipodi-0.dtd"
   xmlns:inkscape="http://www.inkscape.org/namespaces/inkscape"
   width="400"
   height="400"
   viewBox="0 0 105.83333 105.83334"
   version="1.1"
   id="svg8"
   inkscape:version="0.92.3 (2405546, 2018-03-11)"
   sodipodi:docname="minas.svg">
  <defs
     id="defs2" />
  <sodipodi:namedview
     id="base"
     pagecolor="#ffffff"
     bordercolor="#666666"
     borderopacity="1.0"
     inkscape:pageopacity="0.0"
     inkscape:pageshadow="2"
     inkscape:zoom="1.3664839"
     inkscape:cx="188.89773"
     inkscape:cy="207.88743"
     inkscape:document-units="px"
     inkscape:current-layer="layer1"
     showgrid="false"
     units="px"
     inkscape:snap-bbox="true"
     inkscape:bbox-paths="true"
     inkscape:bbox-nodes="true"
     inkscape:snap-bbox-edge-midpoints="true"
     inkscape:snap-bbox-midpoints="true"
     inkscape:snap-intersection-paths="true"
     inkscape:object-paths="true"
     inkscape:window-width="1222"
     inkscape:window-height="997"
     inkscape:window-x="58"
     inkscape:window-y="0"
     inkscape:window-maximized="1" />
  <metadata
     id="metadata5">
    <rdf:RDF>
      <cc:Work
         rdf:about="">
        <dc:format>image/svg+xml</dc:format>
        <dc:type
           rdf:resource="http://purl.org/dc/dcmitype/StillImage" />
        <dc:title />
      </cc:Work>
    </rdf:RDF>
  </metadata>
  <g
     inkscape:label="Layer 1"
     inkscape:groupmode="layer"
     id="layer1"
     transform="translate(0,-191.16666)">
    <g
       aria-label="⛏"
       style="font-style:normal;font-variant:normal;font-weight:normal;font-stretch:normal;font-size:17.63889122px;line-height:1.25;font-family:Coolvetica;-inkscape-font-specification:Coolvetica;font-variant-ligatures:normal;font-variant-caps:normal;font-variant-numeric:normal;font-feature-settings:normal;text-align:center;writing-mode:lr-tb;text-anchor:middle;opacity:1;fill:#f31a5a;fill-opacity:1;stroke:none;stroke-width:0.17027463;stroke-linecap:round;stroke-linejoin:bevel;stroke-miterlimit:4;stroke-dasharray:none;stroke-dashoffset:0;stroke-opacity:1"
       id="text12-3"
       transform="matrix(6.3103689,0,0,6.1219593,-228.07475,-1343.4492)">
      <path
         inkscape:connector-curvature="0"
         d="m 48.591865,265.35846 -7.814028,-8.29028 q -2.663473,2.82222 -3.421945,6.59694 l -0.740834,-0.10583 q -0.05292,-0.40569 -0.05292,-0.89958 0,-2.04611 0.723194,-3.88056 0.740834,-1.83444 2.06375,-3.24555 l -2.240139,-3.13973 0.493889,-0.42333 2.928056,2.46944 q 1.340556,-1.07597 2.998612,-1.67569 1.658055,-0.61736 3.545417,-0.61736 0.423333,0 0.776111,0.0353 0.352778,0.0176 0.617361,0.0529 l 0.105833,0.59973 q -3.81,0.67027 -6.614584,3.10444 l 7.761112,8.23736 z"
         style="stroke-width:0.17027463;fill:#f31a5a;fill-opacity:1"
         id="path35" />
    </g>
    <g
       aria-label="⚒"
       style="font-style:normal;font-variant:normal;font-weight:normal;font-stretch:normal;font-size:17.63889122px;line-height:1.25;font-family:Coolvetica;-inkscape-font-specification:Coolvetica;font-variant-ligatures:normal;font-variant-caps:normal;font-variant-numeric:normal;font-feature-settings:normal;text-align:center;writing-mode:lr-tb;text-anchor:middle;opacity:1;fill:#f31a5a;fill-opacity:1;stroke:none;stroke-width:0.17027463;stroke-linecap:round;stroke-linejoin:bevel;stroke-miterlimit:4;stroke-dasharray:none;stroke-dashoffset:0;stroke-opacity:1"
       id="text12"
       transform="matrix(6.3103689,0,0,6.1219593,-228.07475,-1343.4492)">
      <path
         d="m 48.72253,257.10477 -1.584744,-1.61058 1.705323,-1.72255 1.584744,1.61058 0.37896,-0.38757 1.171333,1.18856 -0.378961,0.37896 c 0.396187,0.64883 0.694762,2.11012 0.895725,4.38388 l -2.592434,-2.66133 c -7.906495,8.38019 0,0 -7.906495,8.38019 l -1.584745,-1.59335 c 8.311294,-7.96679 0,0 8.311294,-7.96679 z"
         style="fill:#f31a5a;stroke-width:0.17027463;fill-opacity:1"
         id="path32"
         inkscape:connector-curvature="0"
         sodipodi:nodetypes="cccccccccccc" />
    </g>
  </g>
</svg>
