<?xml version="1.0" encoding="UTF-8" standalone="no"?>
<!-- Svg Vector Icons : http://www.onlinewebfonts.com/icon -->

<svg
   xmlns:dc="http://purl.org/dc/elements/1.1/"
   xmlns:cc="http://creativecommons.org/ns#"
   xmlns:rdf="http://www.w3.org/1999/02/22-rdf-syntax-ns#"
   xmlns:svg="http://www.w3.org/2000/svg"
   xmlns="http://www.w3.org/2000/svg"
   xmlns:sodipodi="http://sodipodi.sourceforge.net/DTD/sodipodi-0.dtd"
   xmlns:inkscape="http://www.inkscape.org/namespaces/inkscape"
   version="1.1"
   x="0px"
   y="0px"
   viewBox="0 0 400 400"
   enable-background="new 0 0 1000 1000"
   xml:space="preserve"
   id="svg10"
   sodipodi:docname="porcinos.svg"
   width="400"
   height="400"
   inkscape:version="0.92.3 (2405546, 2018-03-11)"><defs
   id="defs14" /><sodipodi:namedview
   pagecolor="#ffffff"
   bordercolor="#666666"
   borderopacity="1"
   objecttolerance="10"
   gridtolerance="10"
   guidetolerance="10"
   inkscape:pageopacity="0"
   inkscape:pageshadow="2"
   inkscape:window-width="1222"
   inkscape:window-height="997"
   id="namedview12"
   showgrid="false"
   inkscape:zoom="0.236"
   inkscape:cx="381.35593"
   inkscape:cy="250"
   inkscape:window-x="58"
   inkscape:window-y="0"
   inkscape:window-maximized="1"
   inkscape:current-layer="svg10" />
<metadata
   id="metadata2"> Svg Vector Icons : http://www.onlinewebfonts.com/icon <rdf:RDF><cc:Work
     rdf:about=""><dc:format>image/svg+xml</dc:format><dc:type
       rdf:resource="http://purl.org/dc/dcmitype/StillImage" /><dc:title></dc:title></cc:Work></rdf:RDF></metadata>
<g
   id="g8"
   transform="matrix(0.38775483,0,0,0.37435352,6.1245023,12.82665)"
   style="stroke-width:2.6247046;fill:#bc2122;fill-opacity:1;stroke:none"><g
     transform="matrix(0.1,0,0,-0.1,0,511)"
     id="g6"
     style="stroke-width:2.6247046;fill:#bc2122;fill-opacity:1;stroke:none"><path
       d="m 6267.6,2776.1 c -33.5,-7.2 -119.7,-28.7 -191.5,-47.9 -71.8,-21.5 -260.9,-45.5 -418.9,-57.4 -196.3,-14.4 -390.2,-47.9 -612.8,-105.3 -339.9,-88.6 -526.6,-107.7 -1433.9,-158 -651.1,-35.9 -938.4,-79 -1283.1,-196.3 -275.3,-91 -304,-95.8 -392.6,-69.4 -67,19.2 -114.9,55.1 -155.6,117.3 -62.2,95.8 -347.1,268.1 -440.5,268.1 -59.8,0 -64.6,-55.1 -14.4,-143.6 19.1,-33.5 33.5,-83.8 35.9,-114.9 0,-47.9 -9.6,-52.7 -52.7,-40.7 -31.1,9.6 -93.3,38.3 -138.8,67 -59.9,33.5 -141.2,52.7 -280.1,59.8 -110.1,4.8 -198.7,2.4 -198.7,-7.2 0,-9.6 31.1,-57.4 69.4,-105.3 86.2,-107.7 222.6,-378.2 277.7,-553 23.9,-71.8 62.2,-172.4 88.6,-222.6 26.3,-52.7 38.3,-112.5 31.1,-138.8 C 1116,1201 816.8,954.5 558.3,837.2 426.6,777.4 326.1,770.2 204,818.1 146.5,839.6 84.3,650.5 103.5,506.9 c 31.1,-249 33.5,-253.7 150.8,-304 59.8,-26.3 150.8,-86.2 205.9,-134.1 102.9,-93.3 778,-430.9 995.8,-497.9 86.2,-26.3 270.5,-45.5 538.6,-57.4 380.6,-16.8 423.7,-23.9 658.3,-105.3 138.8,-45.5 342.3,-102.9 454.8,-126.9 112.5,-24 215.4,-50.3 229.8,-62.3 14.4,-9.6 33.5,-81.4 40.7,-158 7.2,-74.2 38.3,-237 67,-359.1 47.9,-213.1 47.9,-227.4 12,-397.4 -21.5,-95.8 -69.4,-222.6 -107.7,-280.1 -35.9,-57.5 -93.4,-155.6 -129.3,-215.4 l -64.6,-110.1 h 203.5 203.5 v 88.6 c 0,100.5 83.8,203.5 117.3,146 14.4,-23.9 31.1,-23.9 67,-4.8 40.7,21.5 50.3,57.4 62.2,258.5 16.8,294.4 52.7,428.5 100.5,390.2 57.5,-47.9 162.8,-292.1 165.2,-383 2.4,-114.9 -95.8,-406.9 -189.1,-562.5 -43.1,-71.8 -71.8,-134 -64.6,-141.2 26.3,-28.7 378.2,-12 435.7,16.7 50.3,26.3 59.8,45.5 52.7,131.7 -4.8,98.2 -4.8,100.5 55,71.8 45.5,-19.1 67,-19.1 98.1,7.2 35.9,28.7 38.3,71.8 26.3,356.7 -7.2,177.1 -26.3,414.1 -43.1,524.2 -35.9,272.9 -19.2,454.8 62.2,591.3 117.3,198.7 126.9,201.1 828.3,201.1 588.9,0 620,-2.4 797.1,-59.8 325.7,-107.9 495.6,-81.6 1079.7,155.4 260.9,105.3 260.9,105.3 287.3,-64.6 12,-76.6 43.1,-136.4 122.1,-225 143.6,-162.8 201.1,-282.5 201.1,-423.7 0,-203.5 -59.8,-354.3 -210.7,-514.7 -399.8,-433.3 -404.6,-488.3 -38.3,-493.1 l 146,-2.4 57.4,148.4 c 64.6,162.8 112.5,196.3 191.5,124.5 62.3,-57.5 105.3,-14.4 153.2,153.2 57.5,193.9 208.3,500.3 308.8,627.2 69.4,86.2 83.8,122.1 71.8,174.7 l -14.4,67.1 141.3,-69.4 c 76.6,-40.7 162.8,-98.1 191.5,-126.9 71.8,-81.4 222.6,-361.5 260.9,-493.1 40.7,-134 7.2,-301.6 -122.1,-612.8 -45.5,-112.5 -83.8,-227.4 -83.8,-251.3 0,-71.8 67,-83.8 227.4,-43.1 79,19.2 172.4,43.1 210.6,50.3 59.9,12 64.6,21.6 64.6,119.7 0,98.2 4.8,107.7 59.8,107.7 35.9,0 74.2,23.9 98.1,62.3 38.3,57.4 38.3,69.4 2.4,186.7 -52.7,165.2 -50.3,361.5 7.2,624.8 26.3,119.7 43.1,244.2 33.5,282.5 -7.2,35.9 -55.1,98.2 -105.3,138.9 -105.1,85.8 -263,363.5 -263,466.5 0,35.9 43.1,136.4 95.8,225 165.1,272.9 256,622.4 275.2,1065.2 12,287.3 76.6,406.9 191.5,363.9 31.1,-12 28.7,-26.3 -2.4,-102.9 -47.9,-112.5 -31.1,-153.2 67,-153.2 76.6,0 76.6,0 23.9,38.3 l -55,38.3 52.6,81.4 c 76.6,126.9 19.2,272.9 -112.5,272.9 -50.3,0 -76.6,38.3 -198.7,282.5 -165.2,325.6 -258.5,428.5 -600.8,651.1 -430.9,280.1 -823.5,430.9 -1242.4,478.8 -234.6,23.8 -1347.7,50.1 -1438.6,33.4 z"
       id="path4"
       inkscape:connector-curvature="0"
       style="stroke-width:2.6247046;fill:#bc2122;fill-opacity:1;stroke:none" /></g></g>
</svg>